…
``` r
get_instance_trends(instance = "fosstodon.org")
```

``` hljs
## # A tibble: 70 × 5
##    name               url                               day        accou…¹  uses
##    <chr>              <chr>                             <date>       <int> <int>
##  1 nicolasturgeon     https://fosstodon.org/tags/nicol… 2023-02-16       9     9
##  2 nicolasturgeon     https://fosstodon.org/tags/nicol… 2023-02-15     113   141
##  3 nicolasturgeon     https://fosstodon.org/tags/nicol… 2023-02-14       0     0
##  4 nicolasturgeon     https://fosstodon.org/tags/nicol… 2023-02-13       0     0
##  5 nicolasturgeon     https://fosstodon.org/tags/nicol… 2023-02-12       0     0
##  6 nicolasturgeon     https://fosstodon.org/tags/nicol… 2023-02-11       0     0
##  7 nicolasturgeon     https://fosstodon.org/tags/nicol… 2023-02-10       0     0
##  8 waterfallwednesday https://fosstodon.org/tags/water… 2023-02-16      18    19
##  9 waterfallwednesday https://fosstodon.org/tags/water… 2023-02-15      88    95
## 10 waterfallwednesday https://fosstodon.org/tags/water… 2023-02-14       2     2
## # … with 60 more rows, and abbreviated variable name ¹​accounts
```
…
*(Future versions will allow to use the username and user id
interchangeably)*

Using the id, you can get the followers and following users with
`get_account_followers()` and `get_account_following()` and statuses
with `get_account_statuses()`.

``` r
id <- "109302436954721982"
get_account_followers(id)
```

``` hljs
## # A tibble: 40 × 21
##    id       usern…¹ acct  displ…² locked bot   disco…³ group created_at         
##    <chr>    <chr>   <chr> <chr>   <lgl>  <lgl> <lgl>   <lgl> <dttm>             
##  1 1095295… irene   iren… "Irene" FALSE  FALSE FALSE   FALSE 2022-12-17 00:00:00
##  2 1096924… feinma… fein… "fm :r… FALSE  FALSE FALSE   FALSE 2023-01-15 00:00:00
##  3 1098626… superh… supe… "Huw R… FALSE  FALSE FALSE   FALSE 2023-02-10 00:00:00
##  4 1098538… TEG     TEG@… ""      FALSE  FALSE TRUE    FALSE 2023-02-12 00:00:00
##  5 235323   ccamara ccam… "Carlo… FALSE  FALSE TRUE    FALSE 2020-05-10 00:00:00
##  6 1096307… SocSci… SocS… "Siobh… TRUE   FALSE TRUE    FALSE 2022-11-05 00:00:00
##  7 1092694… atomas… atom… "Aleks… FALSE  FALSE TRUE    FALSE 2022-10-31 00:00:00
##  8 1093647… Maxime… Maxi… "Maxim… FALSE  FALSE TRUE    FALSE 2022-11-08 00:00:00
##  9 1098228… zsofiz… zsof… "Zsofi… FALSE  FALSE FALSE   FALSE 2023-02-07 00:00:00
## 10 1094556… rattle… ratt… "Micha… FALSE  FALSE TRUE    FALSE 2022-12-01 00:00:00
## # … with 30 more rows, 12 more variables: note <chr>, url <chr>, avatar <chr>,
## #   avatar_static <chr>, header <chr>, header_static <chr>,
## #   followers_count <int>, following_count <int>, statuses_count <int>,
## #   last_status_at <dttm>, fields <I<list>>, emojis <I<list>>, and abbreviated
## #   variable names ¹​username, ²​display_name, ³​discoverable
```

``` r
get_account_following(id)
```

``` hljs
## # A tibble: 40 × 21
##    id       usern…¹ acct  displ…² locked bot   disco…³ group created_at         
##    <chr>    <chr>   <chr> <chr>   <lgl>  <lgl> <lgl>   <lgl> <dttm>             
##  1 1098189… rOpenS… rOpe… rOpenS… FALSE  FALSE TRUE    FALSE 2023-02-06 00:00:00
##  2 1095371… kierisi kier… jesse … FALSE  FALSE TRUE    FALSE 2022-12-16 00:00:00
##  3 1093025… Franci… Fran… Franci… FALSE  FALSE FALSE   FALSE 2022-04-26 00:00:00
##  4 1092696… maelle  mael… Maëlle… FALSE  FALSE TRUE    FALSE 2022-04-26 00:00:00
##  5 1095277… derTob… derT… Tobias… FALSE  FALSE FALSE   FALSE 2022-12-16 00:00:00
##  6 1093429… georgi… geor… Georgi… FALSE  FALSE TRUE    FALSE 2022-11-12 00:00:00
##  7 1092933… charli… char… charli… FALSE  FALSE TRUE    FALSE 2022-10-31 00:00:00
##  8 1093082… terence tere… terence FALSE  FALSE TRUE    FALSE 2022-11-08 00:00:00
##  9 1093088… rachael rach… Rachael FALSE  FALSE TRUE    FALSE 2022-11-08 00:00:00
## 10 1093114… minecr  mine… Mine Ç… FALSE  FALSE FALSE   FALSE 2022-11-09 00:00:00
## # … with 30 more rows, 12 more variables: note <chr>, url <chr>, avatar <chr>,
## #   avatar_static <chr>, header <chr>, header_static <chr>,
## #   followers_count <int>, following_count <int>, statuses_count <int>,
## #   last_status_at <dttm>, fields <I<list>>, emojis <I<list>>, and abbreviated
## #   variable names ¹​username, ²​display_name, ³​discoverable
```
…
