…
That’s some major piping going on there. Notice that I added one more
line to delete the column rk, which we do not need.

We can test the function using a different season.

``` r
 scrape_stats(season = 2012)
```

``` hljs
## # A tibble: 478 x 30
##       rk player     pos     age tm        g    gs    mp    fg   fga fgper…
##    <dbl> <chr>      <chr> <dbl> <chr> <dbl> <dbl> <dbl> <dbl> <dbl>  <dbl>
##  1 357   A.J. Price PG     25.0 IND    44.0  1.00   568  59.0   174  0.339
##  2 177   Aaron Gray C      27.0 TOR    49.0 40.0    813  83.0   161  0.516
##  3 191   Al Harrin… PF     31.0 DEN    64.0  1.00  1761 345     773  0.446
##  4 216   Al Horford C      25.0 ATL    11.0 11.0    348  57.0   103  0.553
##  5 236   Al Jeffer… C      27.0 UTA    61.0 61.0   2075 516    1048  0.492
##  6  11.0 Al-Farouq… SF     21.0 NOH    66.0 21.0   1477 150     365  0.411
##  7  14.0 Alan Ande… SF     29.0 TOR    17.0 12.0    461  55.0   142  0.387
##  8  70.0 Alec Burks SG     20.0 UTA    59.0  0      939 153     357  0.429
##  9 164   Alonzo Gee SG     24.0 CLE    63.0 31.0   1827 227     551  0.412
## 10 407   Amar'e St… PF     29.0 NYK    47.0 47.0   1543 316     654  0.483
## # ... with 468 more rows, and 19 more variables: x3p <dbl>, x3pa <dbl>,
## #   x3ppercent <dbl>, x2p <dbl>, x2pa <dbl>, x2ppercent <dbl>,
## #   efgpercent <dbl>, ft <dbl>, fta <dbl>, ftpercent <dbl>, orb <dbl>,
## #   drb <dbl>, trb <dbl>, ast <dbl>, stl <dbl>, blk <dbl>, tov <dbl>,
## #   pf <dbl>, pts <dbl>
```
…
At the end, we are using `full_join()` to merge the three data frames
together. If you are unfamiliar with joins I can recommend the chapter
on *Relational Data*
([Link](http://r4ds.had.co.nz/relational-data.html)) in Hadley’s
fantastic book *R for Data Science*.

Again, test it on a random season.

``` r
scrape_stats(2016)
```

``` hljs
## # A tibble: 476 x 70
##    player  pos     age tm        g    gs     mp     fg    fga fgpe…    x3p
##    <chr>   <chr> <dbl> <chr> <dbl> <dbl>  <dbl>  <dbl>  <dbl> <dbl>  <dbl>
##  1 Aaron … PG     31.0 CHI    69.0  0    1108   188     469   0.401  66.0 
##  2 Aaron … PF     20.0 ORL    78.0 37.0  1863   274     579   0.473  42.0 
##  3 Aaron … SG     21.0 CHO    21.0  0      93.0   5.00   19.0 0.263   3.00
##  4 Adreia… PF     24.0 MIN    52.0  2.00  486    53.0   145   0.366   9.00
##  5 Al Hor… C      29.0 ATL    82.0 82.0  2631   529    1048   0.505  88.0 
##  6 Al Jef… C      31.0 CHO    47.0 18.0  1096   245     505   0.485   0   
##  7 Al-Far… SF     25.0 POR    82.0 82.0  2341   299     719   0.416 126   
##  8 Alan A… SG     33.0 WAS    13.0  0     192    21.0    59.0 0.356  12.0 
##  9 Alan W… PF     23.0 PHO    10.0  0      68.0  10.0    24.0 0.417   0   
## 10 Alec B… SG     24.0 UTA    31.0  3.00  797   137     334   0.410  32.0 
## # ... with 466 more rows, and 59 more variables: x3pa <dbl>,
## #   x3ppercent <dbl>, x2p <dbl>, x2pa <dbl>, x2ppercent <dbl>,
## #   efgpercent <dbl>, ft <dbl>, fta <dbl>, ftpercent <dbl>, orb <dbl>,
## #   drb <dbl>, trb <dbl>, ast <dbl>, stl <dbl>, blk <dbl>, tov <dbl>,
## #   pf <dbl>, pts <dbl>, fg_pm <dbl>, fga_pm <dbl>, fgpercent_pm <dbl>,
## #   x3p_pm <dbl>, x3pa_pm <dbl>, x3ppercent_pm <dbl>, x2p_pm <dbl>,
## #   x2pa_pm <dbl>, x2ppercent_pm <dbl>, ft_pm <dbl>, fta_pm <dbl>,
## #   ftpercent_pm <dbl>, orb_pm <dbl>, drb_pm <dbl>, trb_pm <dbl>,
## #   ast_pm <dbl>, stl_pm <dbl>, blk_pm <dbl>, tov_pm <dbl>, pf_pm <dbl>,
…
