…
This might look a bit overwhelming on first glance so let’s take it step
by step. As a basic layer, we need the information of grid nodes. These
are stored `fifa_som[[4]]`.

``` r
som_grid <- fifa_som[[4]]$pts %>%
  as_tibble %>% 
  mutate(id=row_number())
som_grid
```

``` hljs
## # A tibble: 225 x 3
##        x     y    id
##    <dbl> <dbl> <int>
##  1  1.50 0.866     1
##  2  2.50 0.866     2
##  3  3.50 0.866     3
##  4  4.50 0.866     4
##  5  5.50 0.866     5
##  6  6.50 0.866     6
##  7  7.50 0.866     7
##  8  8.50 0.866     8
##  9  9.50 0.866     9
## 10 10.5  0.866    10
## # ... with 215 more rows
```
…
